{
  "name": "Proyección personal y profesional",
  "image": "portada.jpg",
  "temas": [
    {
      "tema": "Introducción",
      "subtemas": [
        {
          "tema": "Legal",
          "url": "legal.html"
        },
        {
          "tema": "Presentación",
          "url": "presentacion.html"
        },       
        {
          "tema": "Unidad 1",
          "url": "index.html"
        },
        {
          "tema": "Transversalidad de los aprendizajes",
          "url": "aprendizajes.html"
        },
        {
          "tema": "Proyecto formativo",
          "url": "proyecto_formativo.html"
        },
        {
          "tema": "Explora tu mundo",
          "url": "explora_tu_mundo.html"
        },
        {
          "tema": "Evaluación diagnóstica",
          "url": "evaluacion_diagnostica.html"
        }
      ]
    },
    {
      "tema": "Desarrolla factores motivacionales que favorecen el desarrollo integral",
      "subtemas": [
        {
          "tema": "Identificación del concepto de personalidad y sus dimensiones",
          "url": "tema1.0.0.html"
        },
        {
          "tema": "Actividad 1",
          "url": "tema1.0.0A1.html"
        },
        {
          "tema": "Actividad 2",
          "url": "tema1.0.0A2.html"
        },
        {
          "tema": "Identificación de factores motivacionales",
          "url": "tema1.1.0.html"
        },
        {
          "tema": "Actividad 3",
          "url": "tema1.1.0A3.html"
        },
        {
          "tema": "Actividad 4",
          "url": "tema1.1.0A4.html"
        },
        {
          "tema": "Descripción de la motivación como factor de logro",
          "url": "tema1.2.0.html"
        },
        {
          "tema": "Actividad 5",
          "url": "tema1.2.0A5.html"
        },
        {
          "tema": "Actividad 6",
          "url": "tema1.2.0A6.html"
        },
        {
          "tema": "Actividad 7",
          "url": "tema1.2.0A7.html"
        },
        {
          "tema": "Actividad 8",
          "url": "tema1.2.0A8.html"
        },
        {
          "tema": "Actividad 9",
          "url": "tema1.2.0A9.html"
        },
        {
          "tema": "Evaluación formativa",
          "url": "tema1.2.0A9_evaluacion_formativa.html"
        },
        {
          "tema": "Proyecto formativo",
          "url": "tema1.2.0A9_proyecto_formativo.html"
        },
        {
          "tema": "Actividad DHS",
          "url": "tema1.2.0A9_dhs.html"
        }
      ]
    },
    {
      "tema": "Participa en la toma de decisiones dentro de la comunidad de manera responsable",
      "subtemas": [
        {
          "tema": "Problemática de la comunidad",
          "url": "tema2.0.0.html"
        },
        {
          "tema": "Actividad 10",
          "url": "tema2.0.0A10.html"
        },
        {
          "tema": "Actividad 11",
          "url": "tema2.0.0A11.html"
        },
        {
          "tema": "Actividad 12",
          "url": "tema2.0.0A12.html"
        },
        {
          "tema": "Identificación de soluciones",
          "url": "tema2.1.0.html"
        },
        {
          "tema": "Actividad 13",
          "url": "tema2.1.0A13.html"
        },
        {
          "tema": "Actividad 14",
          "url": "tema2.1.0A14.html"
        },
        {
          "tema": "Identificación de las instituciones responsables de acuerdo con las problemáticas establecidas",
          "url": "tema2.2.0.html"
        },
        {
          "tema": "Actividad 15",
          "url": "tema2.2.0A15.html"
        },
        {
          "tema": "Evaluación formativa",
          "url": "tema2.2.0A15_evaluacion_formativa.html"
        },
        {
          "tema": "Actividad transversal",
          "url": "tema2.2.0A15_actividad_transversal.html"
        },
        {
          "tema": "Proyecto formativo",
          "url": "tema2.2.0A15_proyecto_formativo.html"
        },
        {
          "tema": "Actividad DHS",
          "url": "tema2.2.0A15_dhs.html"
        },
        {
          "tema": "Fomento a la lectura",
          "url": "tema2.2.0A15_lectura.html"
        },
        {
          "tema": "Oriéntate",
          "url": "tema2.2.0A15_orientate.html"
        },
        {
          "tema": "Vinculación de competencias y resultados de aprendizaje",
          "url": "tema2.2.0A15_vinculacion_de_competencias.html"
        },
        {
          "tema": "Evaluación sumativa",
          "url": "tema2.2.0A15_evaluacion_sumativa.html"
        },
        {
          "tema": "Prueba tipo PLANEA",
          "url": "tema2.2.0A15_prueba_planea.html"
        }
      ]
    }
  ]
}